simulation/qsim/LogicalStep_Lab3.msim.vcd
$comment
	File created using the following command:
		vcd file LogicalStep_Lab3.msim.vcd -direction
$end
$date
	Tue Mar 07 15:59:32 2023
$end
$version
	ModelSim Version 10.4b
$end
$timescale
	1ps
$end

$scope module LogicalStep_Lab3_top_vlg_vec_tst $end
$var reg 1 ! clkin_50 $end
$var reg 4 " pb_n [3:0] $end
$var reg 8 # sw [7:0] $end
$var wire 1 $ HVAC_temp [3] $end
$var wire 1 % HVAC_temp [2] $end
$var wire 1 & HVAC_temp [1] $end
$var wire 1 ' HVAC_temp [0] $end
$var wire 1 ( leds [7] $end
$var wire 1 ) leds [6] $end
$var wire 1 * leds [5] $end
$var wire 1 + leds [4] $end
$var wire 1 , leds [3] $end
$var wire 1 - leds [2] $end
$var wire 1 . leds [1] $end
$var wire 1 / leds [0] $end
$var wire 1 0 seg7_char1 $end
$var wire 1 1 seg7_char2 $end
$var wire 1 2 seg7_data [6] $end
$var wire 1 3 seg7_data [5] $end
$var wire 1 4 seg7_data [4] $end
$var wire 1 5 seg7_data [3] $end
$var wire 1 6 seg7_data [2] $end
$var wire 1 7 seg7_data [1] $end
$var wire 1 8 seg7_data [0] $end

$scope module i1 $end
$var wire 1 9 gnd $end
$var wire 1 : vcc $end
$var wire 1 ; unknown $end
$var tri1 1 < devclrn $end
$var tri1 1 = devpor $end
$var tri1 1 > devoe $end
$var wire 1 ? seg7_data[1]~output_o $end
$var wire 1 @ seg7_data[5]~output_o $end
$var wire 1 A seg7_data[6]~output_o $end
$var wire 1 B HVAC_temp[0]~output_o $end
$var wire 1 C HVAC_temp[1]~output_o $end
$var wire 1 D HVAC_temp[2]~output_o $end
$var wire 1 E HVAC_temp[3]~output_o $end
$var wire 1 F leds[0]~output_o $end
$var wire 1 G leds[1]~output_o $end
$var wire 1 H leds[2]~output_o $end
$var wire 1 I leds[3]~output_o $end
$var wire 1 J leds[4]~output_o $end
$var wire 1 K leds[5]~output_o $end
$var wire 1 L leds[6]~output_o $end
$var wire 1 M leds[7]~output_o $end
$var wire 1 N seg7_data[0]~output_o $end
$var wire 1 O seg7_data[2]~output_o $end
$var wire 1 P seg7_data[3]~output_o $end
$var wire 1 Q seg7_data[4]~output_o $end
$var wire 1 R seg7_char1~output_o $end
$var wire 1 S seg7_char2~output_o $end
$var wire 1 T sw[0]~input_o $end
$var wire 1 U sw[4]~input_o $end
$var wire 1 V pb_n[3]~input_o $end
$var wire 1 W inst5|OUTPUT[0]~3_combout $end
$var wire 1 X sw[1]~input_o $end
$var wire 1 Y sw[5]~input_o $end
$var wire 1 Z inst5|OUTPUT[1]~2_combout $end
$var wire 1 [ sw[2]~input_o $end
$var wire 1 \ sw[6]~input_o $end
$var wire 1 ] inst5|OUTPUT[2]~1_combout $end
$var wire 1 ^ sw[3]~input_o $end
$var wire 1 _ sw[7]~input_o $end
$var wire 1 ` inst5|OUTPUT[3]~0_combout $end
$var wire 1 a inst1|Mux5~0_combout $end
$var wire 1 b clkin_50~input_o $end
$var wire 1 c inst7|Add1~1_cout $end
$var wire 1 d inst7|Add1~3 $end
$var wire 1 e inst7|Add1~4_combout $end
$var wire 1 f inst7|counter:cnt[2]~0_combout $end
$var wire 1 g pb_n[2]~input_o $end
$var wire 1 h pb_n[0]~input_o $end
$var wire 1 i pb_n[1]~input_o $end
$var wire 1 j inst7|counter:cnt[0]~1_combout $end
$var wire 1 k inst7|Add1~5 $end
$var wire 1 l inst7|Add1~6_combout $end
$var wire 1 m inst7|counter:cnt[3]~0_combout $end
$var wire 1 n inst7|counter:cnt[3]~q $end
$var wire 1 o inst7|cnt~0_combout $end
$var wire 1 p inst6|inst3|output_AEQB~0_combout $end
$var wire 1 q inst6|output_AGTB~2_combout $end
$var wire 1 r inst6|output_AEQB~0_combout $end
$var wire 1 s inst7|counter:cnt[0]~2_combout $end
$var wire 1 t inst6|output_ALTB~0_combout $end
$var wire 1 u inst6|output_ALTB~1_combout $end
$var wire 1 v inst6|output_ALTB~2_combout $end
$var wire 1 w inst7|counter:cnt[0]~4_combout $end
$var wire 1 x inst7|counter:cnt[2]~q $end
$var wire 1 y inst6|output_AGTB~0_combout $end
$var wire 1 z inst6|output_AGTB~1_combout $end
$var wire 1 { inst6|output_AGTB~3_combout $end
$var wire 1 | inst7|Add1~2_combout $end
$var wire 1 } inst7|counter:cnt[1]~1_combout $end
$var wire 1 ~ inst7|counter:cnt[1]~q $end
$var wire 1 !! inst7|counter:cnt[0]~0_combout $end
$var wire 1 "! inst7|counter:cnt[1]~0_combout $end
$var wire 1 #! inst7|counter:cnt[0]~3_combout $end
$var wire 1 $! inst7|counter:cnt[0]~q $end
$var wire 1 %! inst2|Mux5~0_combout $end
$var wire 1 &! inst3|clk_proc:COUNT[0]~0_combout $end
$var wire 1 '! inst3|clk_proc:COUNT[0]~q $end
$var wire 1 (! inst3|clk_proc:COUNT[1]~1_combout $end
$var wire 1 )! inst3|clk_proc:COUNT[1]~q $end
$var wire 1 *! inst3|clk_proc:COUNT[1]~2 $end
$var wire 1 +! inst3|clk_proc:COUNT[2]~1_combout $end
$var wire 1 ,! inst3|clk_proc:COUNT[2]~q $end
$var wire 1 -! inst3|clk_proc:COUNT[2]~2 $end
$var wire 1 .! inst3|clk_proc:COUNT[3]~1_combout $end
$var wire 1 /! inst3|clk_proc:COUNT[3]~q $end
$var wire 1 0! inst3|clk_proc:COUNT[3]~2 $end
$var wire 1 1! inst3|clk_proc:COUNT[4]~1_combout $end
$var wire 1 2! inst3|clk_proc:COUNT[4]~q $end
$var wire 1 3! inst3|clk_proc:COUNT[4]~2 $end
$var wire 1 4! inst3|clk_proc:COUNT[5]~1_combout $end
$var wire 1 5! inst3|clk_proc:COUNT[5]~q $end
$var wire 1 6! inst3|clk_proc:COUNT[5]~2 $end
$var wire 1 7! inst3|clk_proc:COUNT[6]~1_combout $end
$var wire 1 8! inst3|clk_proc:COUNT[6]~q $end
$var wire 1 9! inst3|clk_proc:COUNT[6]~2 $end
$var wire 1 :! inst3|clk_proc:COUNT[7]~1_combout $end
$var wire 1 ;! inst3|clk_proc:COUNT[7]~q $end
$var wire 1 <! inst3|clk_proc:COUNT[7]~2 $end
$var wire 1 =! inst3|clk_proc:COUNT[8]~1_combout $end
$var wire 1 >! inst3|clk_proc:COUNT[8]~q $end
$var wire 1 ?! inst3|clk_proc:COUNT[8]~2 $end
$var wire 1 @! inst3|clk_proc:COUNT[9]~1_combout $end
$var wire 1 A! inst3|clk_proc:COUNT[9]~q $end
$var wire 1 B! inst3|clk_proc:COUNT[9]~2 $end
$var wire 1 C! inst3|clk_proc:COUNT[10]~1_combout $end
$var wire 1 D! inst3|clk_proc:COUNT[10]~q $end
$var wire 1 E! inst3|DOUT_TEMP[1]~0_combout $end
$var wire 1 F! inst1|Mux1~0_combout $end
$var wire 1 G! inst2|Mux1~0_combout $end
$var wire 1 H! inst3|DOUT_TEMP[5]~1_combout $end
$var wire 1 I! inst1|Mux0~0_combout $end
$var wire 1 J! inst2|Mux0~0_combout $end
$var wire 1 K! inst3|DOUT_TEMP[6]~2_combout $end
$var wire 1 L! inst8|blower~0_combout $end
$var wire 1 M! inst8|blower~1_combout $end
$var wire 1 N! inst9|TEST_PASS~0_combout $end
$var wire 1 O! inst9|TEST_PASS~1_combout $end
$var wire 1 P! inst9|TEST_PASS~2_combout $end
$var wire 1 Q! inst9|TEST_PASS~3_combout $end
$var wire 1 R! inst9|TEST_PASS~4_combout $end
$var wire 1 S! inst9|TEST_PASS~5_combout $end
$var wire 1 T! inst9|TEST_PASS~6_combout $end
$var wire 1 U! inst9|LessThan0~0_combout $end
$var wire 1 V! inst9|TEST_PASS~7_combout $end
$var wire 1 W! inst9|TEST_PASS~8_combout $end
$var wire 1 X! inst9|TEST_PASS~9_combout $end
$var wire 1 Y! inst1|Mux6~0_combout $end
$var wire 1 Z! inst2|Mux6~0_combout $end
$var wire 1 [! inst3|DOUT[0]~0_combout $end
$var wire 1 \! inst1|Mux4~0_combout $end
$var wire 1 ]! inst2|Mux4~0_combout $end
$var wire 1 ^! inst3|DOUT[2]~2_combout $end
$var wire 1 _! inst1|Mux3~0_combout $end
$var wire 1 `! inst2|Mux3~0_combout $end
$var wire 1 a! inst3|DOUT[3]~3_combout $end
$var wire 1 b! inst1|Mux2~0_combout $end
$var wire 1 c! inst2|Mux2~0_combout $end
$var wire 1 d! inst3|DOUT[4]~4_combout $end
$upscope $end
$upscope $end
$enddefinitions $end
#0
$dumpvars
0!
b1111 "
b1001100 #
1'
1&
1%
0$
1/
0.
0-
1,
0+
0*
0)
0(
10
01
18
z7
16
05
04
03
02
09
1:
x;
1<
1=
1>
z?
0@
0A
1B
1C
1D
0E
1F
0G
0H
1I
0J
0K
0L
0M
1N
1O
0P
0Q
1R
0S
0T
0U
1V
0W
0X
0Y
0Z
1[
1\
1]
1^
0_
1`
1a
0b
1c
0d
0e
1f
1g
1h
1i
0j
1k
1l
1m
0n
0o
1p
0q
1r
0s
0t
1u
0v
1w
0x
1y
0z
1{
0|
1}
0~
0!!
0"!
1#!
0$!
0%!
1&!
0'!
0(!
0)!
0*!
0+!
0,!
1-!
0.!
0/!
00!
01!
02!
13!
04!
05!
06!
07!
08!
19!
0:!
0;!
0<!
0=!
0>!
1?!
0@!
0A!
0B!
0C!
0D!
1E!
1F!
1G!
0H!
1I!
0J!
0K!
1L!
1M!
0N!
0O!
0P!
0Q!
0R!
1S!
0T!
1U!
0V!
1W!
0X!
1Y!
0Z!
0[!
1\!
0]!
0^!
0_!
1`!
1a!
0b!
1c!
1d!
$end
#10000
1!
1b
1'!
1$!
1~
1x
1n
1E
0D
0C
0B
0c!
0`!
1N!
1J!
0G!
0u
0c
0U!
0p
1d
1|
1R!
1O!
0k
1e
0S!
0l
0'
0&
0%
1$
1(!
0&!
0#!
0d!
0a!
0|
0e
1S!
1l
0W!
1K!
1H!
0}
0f
0m
z@
zA
1P
1Q
1W!
14
15
z2
z3
1}
1f
1m
#20000
0!
0b
#30000
1!
1b
1)!
0'!
0$!
1B
1c!
0N!
1u
1c
1'
1&!
1#!
1d!
1|
0Q
04
0}
#40000
0!
0b
#50000
1!
1b
1'!
1$!
0~
1C
0B
1*!
0c!
1`!
0c
1U!
1p
0d
0|
0'
1&
0(!
0&!
0#!
0d!
1a!
1d
1|
1e
1+!
1}
0P
1Q
0e
14
05
0}
0f
1f
#60000
0!
0b
#70000
1!
1b
1,!
0)!
0'!
0$!
1B
0-!
0*!
0`!
1Z!
1%!
1c
1'
0+!
1&!
1#!
1-!
0a!
1[!
0d
0|
1.!
1+!
0E!
0?
0N
1P
1e
15
08
07
0.!
1}
0f
#80000
0!
0b
#90000
1!
1b
1'!
1$!
1~
0x
1D
0C
0B
1]!
1N!
1G!
0u
0c
0U!
0p
1d
1|
1T!
0R!
0O!
0y
1q
1k
0e
0'
0&
1%
1(!
0&!
0#!
1^!
1O!
0|
1V!
0r
0k
1e
0S!
0l
0H!
0}
0{
1f
0F
0@
1G
0O
1s
1"!
0w
1k
0e
1|
06
1.
03
0/
1}
0f
0m
0M!
0I
1l
0,
1#!
1m
1f
0}
#100000
0!
0b
#110000
1!
1b
1)!
0'!
1&!
#120000
0!
0b
#130000
1!
1b
1'!
1*!
0(!
0&!
0-!
0+!
1.!
#140000
0!
0b
#150000
1!
1b
1/!
0,!
0)!
0'!
10!
1-!
0*!
0.!
1+!
1&!
00!
11!
1.!
0+!
01!
#160000
0!
0b
#170000
1!
1b
1'!
1(!
0&!
#180000
0!
0b
#190000
1!
1b
1)!
0'!
1&!
#200000
0!
0b
#210000
1!
1b
1'!
1*!
0(!
0&!
1+!
#220000
0!
0b
#230000
1!
1b
1,!
0)!
0'!
0-!
0*!
0+!
1&!
10!
1-!
0.!
1+!
00!
11!
1.!
01!
#240000
0!
0b
#250000
1!
1b
1'!
1(!
0&!
#260000
0!
0b
#270000
1!
1b
1)!
0'!
1&!
#280000
0!
0b
#290000
1!
1b
1'!
1*!
0(!
0&!
0-!
0+!
10!
0.!
11!
#300000
0!
0b
#310000
1!
1b
12!
0/!
0,!
0)!
0'!
03!
00!
1-!
0*!
01!
1.!
1+!
1&!
13!
14!
11!
0.!
0+!
04!
#320000
0!
0b
#330000
1!
1b
1'!
1(!
0&!
#340000
0!
0b
#350000
1!
1b
1)!
0'!
1&!
#360000
0!
0b
#370000
1!
1b
1'!
1*!
0(!
0&!
1+!
#380000
0!
0b
#390000
1!
1b
1,!
0)!
0'!
0-!
0*!
0+!
1&!
1-!
1.!
1+!
0.!
#400000
0!
0b
#410000
1!
1b
1'!
1(!
0&!
#420000
0!
0b
#430000
1!
1b
1)!
0'!
1&!
#440000
0!
0b
#450000
b111 "
1!
0V
1b
1M
0`
1(
1b!
1_!
0\!
0F!
1t
0q
0a
1r
1v
1H
0G
0W!
0s
0"!
0.
1-
1M!
1I
1w
1,
0#!
1'!
1*!
0(!
0&!
0-!
0+!
1.!
#460000
0!
0b
#470000
1!
1b
1/!
0,!
0)!
0'!
0$!
0~
1x
0D
1C
1B
10!
1-!
0*!
0]!
0V!
0N!
0G!
1u
1c
1U!
1p
0d
0|
0T!
1R!
0k
1e
1'
1&
0%
0.!
1+!
1&!
1#!
03!
00!
0^!
1|
1k
0e
1S!
0l
01!
1.!
0+!
1H!
1}
0f
z@
1O
13!
1l
16
z3
14!
11!
0}
1f
0m
04!
1m
#480000
0!
0b
#490000
1!
1b
1'!
1$!
0B
1`!
0Z!
0%!
0c
0'
1(!
0&!
0#!
1a!
0[!
0|
1E!
z?
1N
0P
05
18
z7
1}
#500000
0!
0b
#510000
1!
1b
1)!
0'!
0$!
1~
0C
1B
1c!
0`!
1c
0U!
0p
1d
1|
1'
0&
1&!
1#!
1d!
0a!
0d
0|
0k
1e
0}
1P
0Q
1k
0e
0l
04
15
1}
0f
1l
1f
0m
1m
#520000
0!
0b
#530000
1!
1b
1'!
1$!
0B
1*!
0c!
1N!
0u
0c
0'
0(!
0&!
0#!
0d!
1d
1|
1+!
1Q
0k
1e
14
0}
0l
0f
0m
#540000
0!
0b
#550000
1!
1b
1,!
0)!
0'!
0$!
0~
0x
0n
0E
1D
1C
1B
0-!
0*!
1c!
1`!
0N!
0J!
1G!
1u
1c
1U!
1p
0d
0|
0R!
0t
1q
1k
0e
1l
1'
1&
1%
0$
0+!
1&!
1#!
10!
1-!
1d!
1a!
0O!
1|
1e
0l
0.!
1+!
0K!
0H!
1}
1f
1m
0@
0A
0P
0Q
03!
00!
04
05
02
03
01!
1.!
0}
0f
0m
13!
14!
11!
04!
#560000
0!
0b
#570000
1!
1b
1'!
1$!
0B
0c!
0`!
1J!
0G!
1%!
0c
0'
1(!
0&!
0#!
0d!
0a!
0|
1K!
1H!
0E!
0?
z@
zA
1P
1Q
14
15
z2
z3
07
1}
#580000
0!
0b
#590000
1!
1b
1)!
0'!
0$!
1~
0C
1B
1c!
1c
0U!
0p
1d
1|
1'
0&
1&!
1#!
1d!
0d
0|
0e
0}
0Q
1e
04
1}
1f
0f
#600000
0!
0b
#610000
1!
1b
1'!
1$!
0B
1*!
1`!
1Z!
1N!
0%!
0u
0r
0c
0'
0(!
0&!
0#!
1G
0-!
1a!
1[!
1O!
1s
1d
1|
1.
0+!
1E!
0v
0H
z?
0N
0P
10!
0w
0e
1"!
05
08
z7
0-
0.!
1#!
0}
0M!
0I
03!
0,
01!
1f
14!
#620000
0!
0b
#630000
1!
1b
15!
02!
0/!
0,!
0)!
0'!
16!
13!
00!
1-!
0*!
04!
11!
1.!
1+!
1&!
06!
17!
14!
01!
0.!
0+!
07!
#640000
0!
0b
#650000
1!
1b
1'!
1(!
0&!
#660000
0!
0b
#670000
1!
1b
1)!
0'!
1&!
#680000
0!
0b
#690000
1!
1b
1'!
1*!
0(!
0&!
1+!
#700000
0!
0b
#710000
1!
1b
1,!
0)!
0'!
0-!
0*!
0+!
1&!
1-!
1.!
1+!
0.!
#720000
0!
0b
#730000
1!
1b
1'!
1(!
0&!
#740000
0!
0b
#750000
1!
1b
1)!
0'!
1&!
#760000
0!
0b
#770000
1!
1b
1'!
1*!
0(!
0&!
0-!
0+!
1.!
#780000
0!
0b
#790000
1!
1b
1/!
0,!
0)!
0'!
10!
1-!
0*!
0.!
1+!
1&!
00!
11!
1.!
0+!
01!
#800000
0!
0b
#810000
1!
1b
1'!
1(!
0&!
#820000
0!
0b
#830000
1!
1b
1)!
0'!
1&!
#840000
0!
0b
#850000
1!
1b
1'!
1*!
0(!
0&!
1+!
#860000
0!
0b
#870000
1!
1b
1,!
0)!
0'!
0-!
0*!
0+!
1&!
10!
1-!
0.!
1+!
00!
11!
1.!
01!
#880000
0!
0b
#890000
1!
1b
1'!
1(!
0&!
#900000
0!
0b
#910000
1!
1b
1)!
0'!
1&!
#920000
0!
0b
#930000
1!
1b
1'!
1*!
0(!
0&!
0-!
0+!
10!
0.!
11!
#940000
0!
0b
#950000
1!
1b
12!
0/!
0,!
0)!
0'!
03!
00!
1-!
0*!
01!
1.!
1+!
1&!
16!
13!
04!
11!
0.!
0+!
06!
17!
14!
07!
#960000
0!
0b
#970000
1!
1b
1'!
1(!
0&!
#980000
0!
0b
#990000
b11 "
b1 "
b0 "
1!
0g
0i
0h
1b
1K
1J
0L!
1j
1+
1*
1)!
0'!
1&!
